{
  "welcomeFile": "index.html",
  "authenticationMethod": "none",
  "routes": [{
		"source": "/local/(.*)",
		"destination": "local_be"
	},{
		"source": "/remote/(.*)",
		"destination": "remote_be"
	} ]
}